,ID,Age,Sex,(Max/Min)_0850,(Max/Min)_0940,(Max/Min)_1070,(Max/Min)_NO,Glucose (mmd/L),Hb (gm/dL)
0,1001,15,Female,0.8120837231376267,0.6536114506059241,0.595660627368854,0.7620007078808684,4.7,9.9
1,1002,46,Female,0.8002335809823321,0.6580065481292239,0.9851285073967972,0.7530778061536361,5.0,10.3
2,1003,35,Female,0.8300705159812861,0.9221183028090828,0.7467443917372452,0.7684008209229971,4.8,11.2
3,1004,35,Female,0.6972038754967342,0.903056466296768,0.8650772733121114,0.8278007604484585,5.1,11.2
4,1005,25,Female,0.8228866998347099,0.7731848576495709,0.7221495373898968,1.2754093538582705,4.9,9.9
5,1007,29,Female,0.7673997352328957,0.5627071051736622,0.5464003191373908,0.7830898932010091,4.8,9.9
6,1008,25,Female,0.6313660379596049,1.4842635752641224,0.7024062859196124,0.9601281158999002,4.8,10.8
7,1009,41,Female,0.9879473225203388,1.1897008526765214,0.513810462769688,1.0633843046212426,4.9,9.9
8,1010,34,Female,1.1169338353250855,0.8665448355229236,0.7287259656744024,0.9112561367605048,5.0,12.1
9,1011,27,Female,0.9160369655294516,0.7655904721675143,0.8698185230487472,0.7076967634728539,4.9,12.1
10,1012,35,Female,0.825685523688711,0.9564965704889241,0.689861684227672,1.1772099559684608,5.0,10.8
11,1013,20,Female,0.9971113636947888,0.8715009668656529,0.9703440204569542,1.1669303394644674,4.7,11.2
12,1014,50,Female,0.7809263782133432,0.8966719708352462,0.6939001664768809,0.9744220528321073,15.8,12.1
13,1015,26,Female,0.6157486881269603,0.8400768224901763,0.7868075476643579,0.9575178194695154,5.0,10.8
14,1017,24,Female,1.0523997529090665,0.7177302130923842,0.7340764634157808,0.8889904960879836,4.8,11.2
15,1018,30,Female,0.9734585672855453,1.088811688019566,1.5324322734320164,1.3583976484370648,5.0,11.7
16,1019,65,Female,1.056289573277872,0.8999920114143962,0.7955000837918428,0.5217099686575108,5.1,11.7
17,1020,42,Female,0.6016683624700183,0.5522031768519772,0.6064205081933149,1.0069545988672894,5.0,10.8
18,1021,35,Female,0.8596543130944773,1.0025251263618942,0.9377061587113298,0.7542005115322163,5.2,11.7
19,1022,29,Female,1.2957824569674368,0.49657861352951,0.6895973445517771,2.275627161438644,5.0,11.7
20,1023,45,Female,0.8627688312184395,0.5676339689405182,0.9569221011483254,0.7093425778927879,5.1,9.9
21,1024,18,Female,0.7156485026023214,0.5783328824703247,0.6105961626864618,0.8136802028761964,4.8,11.7
22,1025,35,Male,0.9995994293805543,1.0015022097524622,0.8833506738874917,1.0483866492214908,5.0,13.0
23,1026,28,Female,0.5689115455624353,0.9808470594846596,1.0514275021131632,0.6670973138100997,5.0,11.7
24,1027,40,Female,0.5664883758849623,0.8190393390320218,0.5774167716823371,0.6194802663136518,4.9,10.3
25,1028,48,Female,0.6143209495192898,1.0664403145900236,0.7061535244231323,0.7734566917559477,5.0,9.9
26,1029,25,Female,1.4369578115926294,0.4827184307141758,0.6050352974419315,1.067071176093454,4.8,11.2
27,1030,45,Female,1.0828976621823558,1.0816586975697673,0.7805630698666833,0.7090686602373123,5.0,11.6
28,1032,51,Female,0.7011562660555061,0.8039000673417451,1.042972246399011,0.8994003539210843,5.1,11.2
29,1033,24,Male,1.0522742886567744,0.8883068371832777,1.1114779654985556,0.9757804311679172,4.8,11.7
30,1034,25,Female,0.4794568416195257,0.4463355667762993,1.1442723167788742,0.9614000580208312,4.9,11.2
31,1035,27,Female,1.1030973515130214,1.5274257750148,1.08022277064564,0.4482347326175938,5.0,10.8
32,1036,17,Female,0.6593601776675532,1.2287472281946006,0.5956732820886397,1.202425999671472,4.7,9.9
33,1037,40,Female,0.7254717890725615,0.5419152433118298,0.8357841350452571,0.9710342953588064,4.9,9.9
34,1038,20,Female,0.8394540777165582,1.339889316514293,0.6213407583353221,0.5568021137256857,4.8,10.8
35,1039,44,Female,0.6125431613405373,1.5357601090657291,0.8571112047280017,0.873899831257456,5.0,9.9
36,1040,23,Female,0.6714720893423436,0.7576396489631493,0.9812262707656696,1.3251650441893108,4.8,11.2
37,1042,60,Female,0.6560833377626908,0.816758100717912,0.7413302682480786,0.9076883554118425,5.2,9.0
38,1044,35,Female,1.0183218368300595,0.6878046135431102,1.1556351333820427,0.6973021823275698,7.2,11.7
39,1045,42,Female,1.1011000075626916,0.8331937508835908,0.7519143705761032,0.7150038535265685,5.0,11.2
40,1046,26,Female,0.7857160830449536,1.2435154864843467,1.3272147115360609,0.6025691100944782,4.8,11.2
41,1048,51,Female,0.6495292834714497,0.7074513187549076,0.9191601365029324,0.9358303425429104,8.9,11.2
42,1049,64,Female,0.9003440434483874,0.7946458082990684,0.513074999068696,1.1708005879979737,8.1,10.3
43,1050,34,Female,0.9272360838206646,0.9655187105855509,1.0932068082688733,0.727349877233175,5.1,10.8
44,1051,49,Female,0.5250269988898858,0.7096121649529779,0.9223240739191282,0.9805800025176168,5.0,9.9
45,1052,51,Female,0.7400241484000384,0.333282373781445,1.0473573399839875,0.6299012817078208,5.3,11.2
46,1053,40,Female,1.0355786442182164,0.7101284144373289,0.8969415972053834,1.0352331941225226,4.9,10.3
47,1054,50,Female,1.2181454189813787,0.7221971748718801,0.9533520784116528,0.8081931985533395,4.9,6.7
48,1055,57,Female,0.6728308822314649,0.8012435774746592,0.7067488963698634,0.9476864671528734,5.0,9.9
49,1056,32,Female,0.5945358184103569,0.7682193189577122,0.7277473779613971,0.6325795713852611,4.8,10.8
50,1057,36,Female,0.8986423075920029,1.3392193147408,0.7572626144171718,1.089684988087546,5.0,10.8
51,1058,23,Female,1.2468510630981684,0.7672849771106063,0.8555379535124443,1.1918143697124095,4.8,9.0
52,1059,30,Female,0.7817500737076276,0.5251607423389092,1.749644657213974,0.7693151501447264,4.9,11.2
53,1060,23,Female,0.622950553528442,0.6634426873756316,1.1590200401547148,1.1083781002897437,4.8,9.9
54,1016,70,Male,0.924384892903804,0.7561432532249508,0.5267971079085324,1.0874691341643816,9.9,12.1
55,1031,28,Female,0.8894195554495681,0.7438580803655611,0.8124065161329767,0.9233180737719184,4.8,11.2
56,1047,45,Female,0.7592926896570741,0.6218526602431337,0.8593127234272475,1.1131212228895055,5.1,7.6
57,1061,28,Female,0.8733138698113363,0.6943685001238876,0.8453627448971656,1.0971020653663548,4.9,11.2
58,1075,38,Female,0.8335897525922015,0.1694596988009177,0.9473025674276933,1.245725547062288,4.9,9.0
59,1089,50,Female,0.7744297783275733,1.440933628254441,0.6400794912779677,0.4404358136823021,7.7,12.1
60,1103,33,Female,0.6383557620166591,0.8259302567914659,0.8976421700302174,0.8472594718867189,6.7,11.2
61,1117,35,Female,0.664795864005869,0.7362620976461652,0.7180040833406134,1.0420571715985685,5.1,11.7
62,1131,33,Male,0.5360078127234079,0.559785343489271,0.5675217857200888,0.7706947076986642,7.2,12.1
63,1145,52,Male,0.9784009366026248,1.058941590872334,0.5412033242929697,1.0001701474117304,8.1,12.1
64,1159,52,Male,0.8103304383142973,1.011966191838939,1.0702551596649692,1.06575930411022,8.2,11.2
65,1173,55,Male,0.7175647621627336,0.6890659215840468,0.7742198881969977,1.080555760906873,6.7,12.1
66,1187,39,Male,0.9083374157384059,0.6768895581628561,0.5666802887654279,1.0902063116921723,6.1,13.0
67,1201,64,Male,0.7288938150052732,0.7344970274829475,0.8264462466665634,1.040033461892222,4.9,10.8
68,1062,39,Female,0.5517999017587403,0.7060421041621324,1.2284645839058772,3.084891696756607,5.0,9.9
69,1063,50,Female,0.7676239753258653,0.7202229605544196,0.676224143564481,1.195324818077677,4.8,9.9
70,1064,60,Male,1.256396731510518,0.6999948206294138,0.6548415519476981,0.7165729454105692,4.9,11.2
71,1065,32,Male,1.0333535862504821,0.8613429499806319,1.2190717379749794,2.2628735608925195,5.2,11.6
72,1066,32,Female,0.5514379256833996,0.690567053317677,0.4413533344982081,0.9338702863903224,4.8,11.7
73,1067,30,Female,0.6527773353663772,1.292791363681404,0.7409011652888523,0.5253021405198063,5.0,10.8
74,1068,36,Female,0.7134233622749112,0.8307960395733586,0.6456687354398302,1.1142760931821625,4.9,9.9
75,1069,45,Female,0.7824725591420156,1.0696852804937032,0.4610481269444297,0.5010450832666701,4.8,10.3
76,1070,25,Female,0.6777691165548139,0.4950829527092864,1.0884700080947711,1.0330542543160812,4.8,10.3
77,1071,22,Female,0.606963001303077,0.7872526995443121,0.8626836135004581,0.5583982307361601,4.8,10.8
78,1072,45,Female,1.6471133201910848,0.6268028607592457,1.4812265042021973,1.0588554967341601,4.9,10.3
79,1073,48,Female,1.0482555062582308,1.0221639211291844,0.7105572400071031,0.9098150671268086,6.1,9.9
80,1074,32,Female,0.8143924780397848,0.7448390489431753,0.9074772872597244,0.93294563908921,6.7,10.8
81,1076,55,Female,0.6367337991604016,0.5532743516642867,0.6759034492693045,0.8088866422086128,4.9,11.2
82,1077,40,Female,0.8519821394046159,0.6557554591347479,1.0108759255560462,0.8009274468971544,5.1,9.9
83,1078,28,Female,1.71030287558345,1.6911214829846322,0.9473495659765812,1.2286991659162612,4.8,11.2
84,1079,61,Female,1.3902643879378884,0.8208899870405889,0.7507185342310104,1.6865373324957784,5.7,11.2
85,1080,14,Female,0.6517516350422269,1.2813098731905042,0.8066247932376913,0.8688680874934338,4.7,10.8
86,1081,50,Female,0.7848059241331702,1.0402750927156172,0.6337336518990351,1.4293548620412917,6.5,10.3
87,1082,27,Female,0.7805358336085018,0.7510529044824952,0.9277746595948604,0.8781931452453171,4.8,9.9
88,1083,35,Female,1.031253110950547,0.9280705317544882,0.6671851212503557,1.043491009922354,5.1,11.2
89,1084,31,Female,0.6464825596147439,0.7056655094063471,1.074080406863862,0.7989131869149798,4.9,11.2
90,1085,31,Female,0.7042730621485856,0.3682757339965808,1.057755240230961,0.6642593589666126,5.0,11.2
91,1086,58,Female,0.9209182212381434,0.7982424794257134,0.605491301765242,1.0809796287900642,15.1,11.2
92,1087,68,Male,0.8983367869523464,0.9258496406696444,1.4489604216814844,0.9869685408872064,15.8,12.1
93,1088,54,Female,0.7149712697908492,0.6823953902817548,0.7700361182737182,0.8266434171619409,9.2,11.2
94,1090,53,Male,0.957180908420392,1.2223614264839169,0.943685657149826,0.8293712280412543,6.5,12.1
95,1091,41,Male,0.8345575498106369,1.1340036699367395,0.7775729785894716,0.6275407875587352,6.5,14.4
96,1092,45,Male,0.7773409737813902,0.8530500136331972,0.8429598522989766,0.7349251999224452,5.0,13.0
97,1093,55,Female,1.5306693558421258,0.836196271928096,1.0175528121039834,0.9645659291292265,4.8,11.7
98,1094,55,Female,0.7762486813232221,0.8597663556373818,0.7757243910021155,0.6678143044238837,5.2,12.1
99,1095,60,Male,0.6924193043533521,0.6108565959772293,0.9043949259236485,0.6356760027973476,4.9,11.2
100,1096,57,Male,0.7276839428597127,0.8227985621439329,0.929765158310232,0.9350905016290524,5.0,13.0
101,1097,38,Male,0.8211745890366929,0.7903567517876704,0.7160400389228831,0.6345584712745899,5.0,12.1
102,1098,22,Female,0.5799854453957475,0.4453772783291899,0.7413449331544659,1.4343487028394464,4.8,10.8
103,1099,35,Female,0.6717562415878751,0.6585763903352381,0.5577381535345121,1.6544119418102061,4.9,10.3
104,1100,26,Female,1.1694279552107258,0.6818875069627282,0.6529508109546678,0.8128809783383196,4.9,10.8
105,1101,25,Female,0.6253595690505684,1.5251092802586916,1.0558510540210253,0.9707503848716782,4.8,9.0
106,1102,50,Female,0.7307637089764075,1.0515536253927236,0.6146536074279882,1.1683675841090668,5.1,11.2
107,1104,51,Female,1.0011369781184936,1.006880924536107,0.6859969145571138,0.8833449760185771,5.0,12.1
108,1105,52,Female,0.6050347607302761,0.6330660214016478,0.7619795454213966,0.9939806206396641,5.2,11.7
109,1106,33,Female,1.0548287589896586,0.8313917468238229,1.6270672859976272,0.8857426101422093,4.9,11.7
110,1107,30,Female,0.7037388662432569,0.6364880311816183,0.4242298779449424,1.5063865928898998,4.8,11.2
111,1108,36,Female,0.8342574840135547,0.7601446286771459,0.8359236910788512,0.9648838876562438,5.0,11.7
112,1109,26,Female,0.5971263912616631,0.8766308820225227,1.0808983712134892,1.0967217745930438,4.8,10.8
113,1110,25,Female,0.5460210975487796,0.6298020949347313,0.7804313194555074,1.3829800974809594,4.9,10.3
114,1111,52,Female,0.9058832699056574,0.6724498496810073,0.7070370908203025,0.8890007268142934,4.8,10.3
115,1112,26,Male,0.9774897161840408,1.4226448161865326,0.9893262276242748,1.0155052438152283,4.8,13.0
116,1113,20,Female,0.9529128544954532,0.5737566588024069,0.5972317875954,1.448939292537848,4.9,11.2
117,1114,35,Female,0.6880489863473264,0.8333946883365816,0.8392949181089132,0.9970743992294072,5.0,11.2
118,1115,50,Female,0.8235673648825331,1.103013095885366,1.054849300394105,1.0274545115404652,5.2,10.8
119,1116,30,Female,0.9331247595715576,0.8365132973834551,0.6383845001066687,0.975263931616816,5.1,9.9
120,1118,51,Female,0.777427872047819,0.7589543344645292,0.6081023369556005,0.6701258605729443,8.9,10.8
121,1119,15,Female,1.0367801042877378,0.5057783378938077,0.7473163937265054,1.0220450715068885,4.7,11.7
122,1120,63,Male,1.3048900889605473,0.8793555559747508,0.5655178210013853,1.161667409396978,4.9,12.1
123,1121,60,Female,0.7292284152034261,0.8283763307197789,0.7569088999607488,1.0713002568489178,5.0,9.0
124,1122,43,Female,0.7809722867297914,0.7880680581347659,0.7825513594640866,1.0920771578024266,5.1,9.4
125,1123,16,Female,0.5934074740081383,2.787250344655919,0.8127563458478267,0.6978561216395927,4.8,12.1
126,1124,25,Female,1.2425378546558294,0.664046087500134,0.7745211089657204,0.6269049709012153,5.0,11.7
127,1125,27,Female,0.6749498497267312,0.9275686218109646,0.5649975259114332,1.17440833993119,5.0,12.1
128,1126,28,Female,0.7666051675034119,0.7467178717647713,0.6060373381596679,1.0896225526791468,5.0,11.2
129,1127,40,Female,0.8890413141020217,0.7503857035108843,0.5890597751432118,0.9699719351220178,5.2,10.8
130,1128,55,Female,0.6966865843018741,0.6771321446402931,0.8513200694183819,0.6657893108574864,5.5,10.8
131,1129,51,Female,0.7934579322630304,0.7123215722614041,1.1070632037795305,1.5436090422886892,5.1,11.2
132,1130,25,Female,0.7513914676610527,0.7366725049770965,0.7092866831190429,0.5379846595305365,5.0,12.1
133,1132,28,Male,0.5509674131063629,0.5919781751926154,0.5671225960733496,1.2742473950374478,5.6,11.2
134,1133,33,Male,0.996061930544742,1.1426994501033412,0.9014769388360664,0.9671411271046552,5.0,11.2
135,1134,51,Male,0.710809249569203,0.6542917517590559,0.6099632776746585,0.5915218222580223,8.2,11.2
136,1135,38,Male,0.8246809274222273,1.0186676985622205,0.4791245931686661,0.8943281598248596,4.9,11.7
137,1136,35,Male,0.5603319164791947,0.7050657751137394,0.5530409787572957,0.8557029184882945,4.9,9.4
138,1137,28,Male,0.587505444694298,1.0927600087799587,0.6425750793335717,0.6038640189566054,4.9,11.7
139,1138,32,Male,0.34520624843799674,1.0164732539997303,0.7055220159395859,1.4138422092818237,4.9,11.2
140,1139,24,Male,0.5567068169163987,0.7363874991444245,0.8799938389846157,1.2734611909297118,4.8,11.2
141,1140,22,Male,0.9282994717049688,0.7617727043600679,0.7297336778673833,0.6277780243309421,5.0,12.1
142,1141,52,Male,0.7544424948876317,0.7693372993655418,0.6550791985836708,0.9586850421209148,8.2,12.1
143,1142,55,Male,0.8016426187771243,0.4538408283588217,0.5483557548746515,1.0095927789447967,7.9,10.8
144,1143,55,Male,0.9786479903484316,1.0269018699647967,1.0138362951281286,0.9674062637407476,8.3,12.1
145,1144,57,Male,1.097356880367961,1.069159984809369,0.7456433057045766,0.8170367255167186,8.3,12.1
146,1146,53,Male,0.9952733950548901,1.16193938035607,0.7322561031830285,1.0586079693260722,8.3,11.7
147,1147,51,Male,0.9214189911218144,0.5286962164034539,0.5147091102939655,0.6919659116217967,9.2,11.2
148,1148,50,Male,0.7724693603378626,0.7784488415228601,0.6211298472018068,0.5983359065370747,8.5,12.1
149,1149,53,Male,0.6722058050561429,1.0017572695351982,0.7660046608841624,0.8116140606399153,6.1,12.1
150,1150,53,Male,0.8802053002639998,0.8627194360379995,1.0786465090277468,0.97667158795301,6.0,12.1
151,1151,54,Male,0.9338610828737216,0.8366656415445497,1.2283184539423606,1.2626677047261143,6.5,12.1
152,1152,39,Male,0.6545821907490522,1.3105785772843013,0.6271511401146402,0.8128287111992494,6.0,13.0
153,1153,20,Male,0.7243922710877677,0.7143839357478234,0.7347603296563647,0.6907006027189715,4.8,13.9
154,1154,54,Male,0.5853291808502166,0.5097200271808465,1.4920974154850992,0.9561209947167688,7.2,12.6
155,1155,25,Male,1.0100695017609929,0.7237369715031108,0.42634984839828977,0.8086017081816953,4.9,13.0
156,1156,25,Male,0.8441194015755509,1.4150839351416742,0.7999650534261048,0.7192325528613861,4.9,12.1
157,1157,27,Male,0.5966907359406484,0.7004261606407443,0.8807804923341224,0.6228604539143735,5.2,12.1
158,1158,51,Male,0.6318179019920004,0.8280653342228196,0.9493014364768876,1.0507175394756365,7.8,11.2
159,1160,39,Male,0.7506120900592754,0.8188080866589921,0.6156442970203384,0.7181440638810415,5.2,12.1
160,1161,32,Male,0.5905551986438015,0.7948446139988141,0.8996729461062808,0.6555376705396194,4.9,11.7
161,1162,33,Male,0.8284103650355316,0.8834881160146832,0.8574288436840257,0.6339250407016569,5.0,13.0
162,1163,60,Male,0.6015269756095626,0.5836173381251833,0.6798759825253328,0.9662673538724056,8.1,10.3
163,1164,37,Male,0.8149616523611452,1.1175930701383046,0.9415039843810444,0.6989567853271329,5.1,12.6
164,1165,30,Male,0.5969895432477075,0.8210189892567005,0.7171025925743916,0.6369018499968521,5.0,13.0
165,1166,24,Male,0.7311857148656742,0.7644007834025436,0.8486718835245195,1.0031139526187862,5.1,13.0
166,1167,50,Male,0.8469249546244447,0.7249092971705037,0.8583487709064959,0.9523785220233046,9.4,13.0
167,1169,39,Male,0.9105154603443109,0.6229881819782549,0.8645563915541205,1.2227024825511092,10.8,12.1
168,1170,25,Male,0.42785806324745057,0.9094449912695782,0.5254925006192463,0.8986371566824846,5.0,12.1
169,1171,41,Male,0.8852130678989659,1.0186715117987353,0.5680938887189475,0.8657466626534455,5.3,11.7
170,1172,28,Male,0.6887581161506957,1.0637581087149917,0.7059128091702657,0.9195745249048743,5.0,12.1
171,1174,43,Male,0.7347783244996132,0.8119598396699109,0.48550140674569703,1.070209991821596,5.2,11.2
172,1175,50,Male,0.9317434871940388,0.6874012655629169,0.962704921154627,0.9293830259406792,8.1,11.2
173,1176,43,Male,0.7598323101077984,1.0036166169088456,0.8622228148089859,0.7294208633423397,5.1,12.1
174,1177,55,Male,0.8381859784798324,0.8053333836559384,0.8807767632311625,0.9378988674768785,5.2,13.0
175,1178,42,Male,0.8782161278654668,1.0300369427469216,0.7400889406762977,0.9055586958860282,5.3,10.8
176,1179,35,Male,0.6486909036774174,1.0354588062144352,0.9162118680552652,0.9624406295714588,5.0,11.2
177,1180,50,Male,0.5995068034020866,0.6160108541977611,0.7971808159390705,0.6461606942124958,5.4,11.2
178,1181,56,Male,0.7511439277165435,1.123245870201018,0.5685055861386293,1.3119664122712542,5.5,11.2
179,1182,22,Male,1.0615573539304473,0.8604419342995506,0.714054786366595,0.668379288915299,5.1,13.0
180,1183,40,Male,0.6379020463824959,0.8307485733914008,0.6328682797111601,0.6927878231161603,5.1,13.0
181,1184,60,Male,0.8635209876259591,1.042171726206406,0.6002516294245341,0.6739573562551869,7.2,11.2
182,1185,41,Male,0.6503135075288182,0.9198652611756086,0.9592128211380716,0.7641698023374242,6.8,12.1
183,1186,37,Male,0.6549631664508717,1.0505930302293294,0.6939853224514295,0.8433565083088497,6.0,12.1
184,1188,42,Male,1.3112551390872231,1.3321617993051298,1.4930256265999815,0.5837504948287779,6.3,12.1
185,1189,44,Male,1.2105851446347164,0.8531464037847827,0.579190581244449,0.8113067509007696,5.6,11.2
186,1190,48,Male,0.7162333391299043,0.7619759403368409,0.7382710734584478,1.006914269329371,5.1,12.1
187,1191,35,Male,0.8129499986585171,0.7910694891783193,0.9193598413340912,0.6401917121567962,4.9,10.3
188,1192,46,Male,0.7373836147670543,1.2624096847187678,0.8035998029551917,0.8689052251692112,5.2,12.1
189,1193,37,Male,0.681320495243798,0.4365614009630381,1.497963692565464,0.6701382758932654,5.5,11.2
190,1194,42,Male,0.9259961687510956,0.6356595433350266,0.7587036334475321,1.2182621036865455,8.1,11.2
191,1195,35,Male,0.5815840949041001,0.9664784189971244,0.9277828975472922,0.8259798647926692,4.8,10.8
192,1196,38,Male,0.8073697159187405,0.6994582131326472,0.6740800831021323,0.9032960813506969,5.5,12.1
193,1197,25,Male,1.4931499193577185,0.7209253965410022,0.8203603875276982,1.2245091931866008,5.1,12.1
194,1198,42,Male,0.8845966266338202,0.9439340736272618,0.9221135544443672,0.6042076290649615,6.2,12.1
195,1199,42,Male,0.9240129786017444,0.7481864849116503,0.7331378528358939,1.2419626251081848,7.2,10.3
196,1200,56,Male,0.7185527511146976,0.9984941737144466,0.7799037249523312,0.8915904544107685,13.5,11.2
197,1202,40,Male,1.1889433735070143,0.608336189843585,1.1888053819642346,0.643646218629662,4.8,9.9
198,1203,57,Male,0.6449471923105419,0.8348119463300466,0.7135241703534055,0.4741508010945965,8.3,11.2
199,1204,35,Male,0.7821168644332886,0.9444496373790916,0.8833092124054029,0.8270025592393921,7.7,13.0
200,1205,40,Male,0.8694573295986022,1.0010472291307808,1.0636911298057865,1.0534483265978505,4.9,11.7
201,1206,44,Male,1.2595532637953557,0.7660185124944614,0.8141961663937992,1.0130692582695229,4.9,11.2
202,1207,35,Male,1.063638863496812,0.9454107225125348,0.8742103905095712,0.616811534567413,5.0,12.1
203,1208,52,Male,0.34667817893558106,1.1030496903349694,0.8757066805001076,1.0048183649187743,5.0,12.1
204,1209,47,Male,1.2217702713137368,0.9284890840636716,0.8769693451739025,0.7145429492625608,5.0,10.3
205,1210,50,Male,0.6277409948182674,0.6147318512014639,0.7723724426564438,0.8063587254105083,5.7,12.1
206,1211,60,Male,0.672637448459871,0.6847804815209073,0.7614064797300318,0.7756364335645997,5.2,11.2
207,1212,35,Male,0.8581543390160048,0.7407273839717801,0.6026387372323292,0.7268431714836935,4.9,12.6
208,1213,45,Male,1.0631272286867617,1.017703494303755,1.0943972349274884,0.8301226389127869,5.0,12.1
209,1214,45,Male,0.6013627173679039,0.9529018174886862,0.7442845505800992,1.1595450736748885,5.1,10.3
210,1215,46,Male,0.7450222440568359,0.9309440603923662,1.1978051697924248,0.8883579414555193,4.9,12.1
